{
    "name": "clara-v3-training",
    "description": "Clara v3 training session",
    "label": "clara-v3-training",
    "version": "1.0",
    "schema-version": "1.0",
    "image": "xnat/clara-train-v3:1.0",
    "container-name": "[TRAEFIK_ID]-live",
    "type": "docker",
    "command-line": "#SCRIPT# #CONFIG# #OTHER_OPTIONS#",
    "override-entrypoint": true,
    "mounts": [
        {
            "name": "project-in",
            "writable": false,
            "path": "/workspace/data"
        },
        {
            "name": "config-in",
            "writable": false,
            "path": "/workspace/config"
        },
        {
            "name": "model-in",
            "writable": false,
            "path": "/workspace/model"
        },
        {
            "name": "output",
            "writable": true,
            "path": "/output"
        }
    ],
    "environment-variables": {"TRAEFIK_ID": "[TRAEFIK_ID]-live"},
    "ports": {},
    "inputs": [
        {
            "name": "script",
            "description": "",
            "type": "string",
            "required": true,
            "default-value": "/workspace/train.sh",
            "replacement-key": "#SCRIPT#"
        },
        {
            "name": "config_file_name",
            "description": "",
            "type": "string",
            "required": true,
            "default-value": "config_train.json",
            "replacement-key": "#CONFIG#"
        },
        {
            "name": "model_file_name",
            "description": "",
            "type": "string",
            "required": false,
            "default-value": "",
            "replacement-key": "#MODEL#"
        },
        {
            "name": "other_options",
            "description": "",
            "type": "string",
            "required": false,
            "default-value": "",
            "replacement-key": "#OTHER_OPTIONS#"
        },
        {
            "name": "traefik-id",
            "description": "ID to use in Traefik routing path.",
            "type": "string",
            "matcher": null,
            "default-value": null,
            "required": false,
            "replacement-key": "[TRAEFIK_ID]",
            "sensitive": null,
            "command-line-flag": null,
            "command-line-separator": null,
            "true-value": null,
            "false-value": null
        }
    ],
    "outputs": [
        {
            "name": "trained-output",
            "description": "The trained model",
            "required": true,
            "mount": "output",
            "path": null,
            "glob": null
        }
    ],
    "xnat": [
        {
            "name": "Clara v3 training",
            "description": "Clara v3 training.",
            "label": "clara-v3-training",
            "contexts": ["ml:trainSession"],
            "external-inputs": [
                {
                    "name": "session",
                    "description": "Clara trainSession",
                    "type": "ProjectAsset",
                    "matcher": null,
                    "default-value": null,
                    "required": true,
                    "replacement-key": null,
                    "sensitive": null,
                    "provides-value-for-command-input": null,
                    "provides-files-for-command-mount": null,
                    "via-setup-command": null,
                    "user-settable": null,
                    "load-children": true
                },
                {
                    "name": "model",
                    "description": "Clara model",
                    "type": "ProjectAsset",
                    "matcher": null,
                    "default-value": null,
                    "required": false,
                    "replacement-key": null,
                    "sensitive": null,
                    "provides-value-for-command-input": null,
                    "provides-files-for-command-mount": null,
                    "via-setup-command": null,
                    "user-settable": null,
                    "load-children": true
                }
            ],
            "derived-inputs": [
                {
                    "name": "session-id",
                    "description": "Training Session ID",
                    "type": "string",
                    "matcher": null,
                    "default-value": null,
                    "required": true,
                    "replacement-key": null,
                    "sensitive": null,
                    "provides-value-for-command-input": "traefik-id",
                    "provides-files-for-command-mount": null,
                    "user-settable": null,
                    "load-children": true,
                    "derived-from-wrapper-input": "session",
                    "derived-from-xnat-object-property": "id",
                    "via-setup-command": null
                },
                {
                    "name": "project",
                    "description": null,
                    "type": "Project",
                    "matcher": null,
                    "default-value": null,
                    "required": true,
                    "replacement-key": null,
                    "sensitive": null,
                    "provides-value-for-command-input": null,
                    "provides-files-for-command-mount": "project-in",
                    "user-settable": false,
                    "load-children": false,
                    "derived-from-wrapper-input": "session",
                    "via-setup-command": null
                },
                {
                    "name": "config-resource",
                    "description": null,
                    "type": "Resource",
                    "matcher": "@.label == 'Configuration'",
                    "default-value": null,
                    "required": true,
                    "replacement-key": null,
                    "sensitive": null,
                    "provides-value-for-command-input": null,
                    "provides-files-for-command-mount": "config-in",
                    "user-settable": null,
                    "load-children": true,
                    "derived-from-wrapper-input": "session",
                    "derived-from-xnat-object-property": null,
                    "via-setup-command": null
                },
                {
                    "name": "model-resource",
                    "description": null,
                    "type": "Resource",
                    "matcher": "@.label == 'Model'",
                    "default-value": null,
                    "required": false,
                    "replacement-key": null,
                    "sensitive": null,
                    "provides-value-for-command-input": null,
                    "provides-files-for-command-mount": "model-in",
                    "user-settable": null,
                    "load-children": true,
                    "derived-from-wrapper-input": "model",
                    "derived-from-xnat-object-property": null,
                    "via-setup-command": null
                }
            ],
            "output-handlers": [
                {
                    "name": "output-resource",
                    "accepts-command-output": "trained-output",
                    "via-wrapup-command": null,
                    "as-a-child-of": "session",
                    "type": "Resource",
                    "label": "Results",
                    "format": null
                }
            ]
        }
    ],
    "runtime": "nvidia",
    "auto-remove": false,
    "shm-size": 1073741824,
    "ipc-mode": "host",
    "generic-resources": {"vram": "8000"},
    "network": null,
    "container-labels": {
        "traefik.enable": "true",
        "traefik.http.routers.[TRAEFIK_ID]-live.middlewares": "append-slash-to-training@docker",
        "traefik.http.routers.[TRAEFIK_ID]-live.rule": "PathPrefix(`/training/[TRAEFIK_ID]-live`)",
        "traefik.http.services.[TRAEFIK_ID]-live.loadbalancer.server.port": "6006"
    }
}